{
  "files": {
    "loopback#static": {
      "params": "$!../client/testing"
    }
  },
  "final:after": {
    "strong-error-handler": {
      "params": {
        "debug": true,
        "log": true
      }
    }
  }
}
