{
  "name": "application",
  "plural": "applications",
  "base": "Application",
  "mixins": {
    "Count": {
      "relations": true,
      "total": true,
      "totalWhitelist": [
        "find"
      ]
    },
    "ExtQuery": {}
  },
  "properties": {
  },
  "validations": [],
  "relations": {},
  "acls": [],
  "methods": {}
}
